[
  {
    "parentId": 1,
    "id": 2,
    "city": "Adana",
    "iata": "ADA",
    "name": "Adana"
  },
  {
    "id": 1,
    "city": "Adana",
    "iata": "ADA",
    "name": "Adana"
  },
  {
    "parentId": 3,
    "id": 4,
    "city": "Adiyaman",
    "iata": "ADF",
    "name": "Adiyaman"
  },
  {
    "id": 3,
    "city": "Adiyaman",
    "iata": "ADF",
    "name": "Adiyaman"
  },
  {
    "parentId": 5,
    "id": 6,
    "city": "Afyon",
    "iata": "AFY",
    "name": "Afyon Havaliman\u0131"
  },
  {
    "id": 5,
    "city": "Afyon",
    "iata": "AFY",
    "name": "Afyon"
  },
  {
    "parentId": 7,
    "id": 8,
    "city": "Agri",
    "iata": "AJI",
    "name": "A\u011fr\u0131"
  },
  {
    "id": 7,
    "city": "Agri",
    "iata": "AJI",
    "name": "Agri"
  },
  {
    "parentId": 9,
    "id": 10,
    "city": "Ankara",
    "iata": "ANK",
    "name": "Etimesgut Havaalan\u0131"
  },
  {
    "parentId": 9,
    "id": 11,
    "city": "Ankara",
    "iata": "ESB",
    "name": "Esenboga"
  },
  {
    "id": 9,
    "city": "Ankara",
    "iata": "ANK",
    "name": "Ankara"
  },
  {
    "id": 12,
    "city": "Kayseri",
    "iata": "ASR",
    "name": "Kayseri"
  },
  {
    "parentId": 12,
    "id": 13,
    "city": "Kayseri",
    "iata": "ASR",
    "name": "Erkilet International Airport"
  },
  {
    "id": 14,
    "city": "Antalya",
    "iata": "AYT",
    "name": "Antalya"
  },
  {
    "parentId": 14,
    "id": 15,
    "city": "Antalya",
    "iata": "AYT",
    "name": "Antalya"
  },
  {
    "id": 16,
    "city": "Batman",
    "iata": "BAL",
    "name": "Batman"
  },
  {
    "parentId": 16,
    "id": 17,
    "city": "Batman",
    "iata": "BAL",
    "name": "Batman"
  },
  {
    "id": 18,
    "city": "Bandirma",
    "iata": "BDM",
    "name": "Bandirma"
  },
  {
    "parentId": 18,
    "id": 19,
    "city": "Bandirma",
    "iata": "BDM",
    "name": "Bandirma"
  },
  {
    "id": 20,
    "city": "Bongouanou",
    "iata": "BGG",
    "name": "Bongouanou"
  },
  {
    "parentId": 20,
    "id": 21,
    "city": "Bongouanou",
    "iata": "BGG",
    "name": "Bongouanou"
  },
  {
    "id": 22,
    "city": "Bodrum",
    "iata": "BJV",
    "name": "Bodrum"
  },
  {
    "parentId": 22,
    "id": 23,
    "city": "Bodrum",
    "iata": "BJV",
    "name": "Milas"
  },
  {
    "parentId": 22,
    "id": 24,
    "city": "Bodrum",
    "iata": "BXN",
    "name": "Imsik"
  },
  {
    "parentId": 25,
    "id": 26,
    "city": "Balikesir",
    "iata": "BZI",
    "name": "Balikesir"
  },
  {
    "id": 25,
    "city": "Balikesir",
    "iata": "BZI",
    "name": "Balikesir"
  },
  {
    "parentId": 27,
    "id": 28,
    "city": "Aydin",
    "iata": "CII",
    "name": "Cildir"
  },
  {
    "id": 27,
    "city": "Aydin",
    "iata": "CII",
    "name": "Aydin"
  },
  {
    "parentId": 29,
    "id": 30,
    "city": "\u00c7anakkale",
    "iata": "CKZ",
    "name": "\u00c7anakkale Havaliman\u0131"
  },
  {
    "id": 29,
    "city": "\u00c7anakkale",
    "iata": "CKZ",
    "name": "\u00c7anakkale"
  },
  {
    "parentId": 31,
    "id": 32,
    "city": "Diyarbakir",
    "iata": "DIY",
    "name": "Diyarbakir"
  },
  {
    "id": 31,
    "city": "Diyarbakir",
    "iata": "DIY",
    "name": "Diyarbakir"
  },
  {
    "parentId": 33,
    "id": 34,
    "city": "Dalaman",
    "iata": "DLM",
    "name": "Dalaman"
  },
  {
    "id": 33,
    "city": "Dalaman",
    "iata": "DLM",
    "name": "Dalaman"
  },
  {
    "parentId": 35,
    "id": 36,
    "city": "Denizli",
    "iata": "DNZ",
    "name": "Cardak"
  },
  {
    "id": 35,
    "city": "Denizli",
    "iata": "DNZ",
    "name": "Denizli"
  },
  {
    "parentId": 37,
    "id": 38,
    "city": "Edremit",
    "iata": "EDO",
    "name": "Edremit\/korfez"
  },
  {
    "id": 37,
    "city": "Edremit",
    "iata": "EDO",
    "name": "Edremit"
  },
  {
    "parentId": 39,
    "id": 40,
    "city": "Erzincan",
    "iata": "ERC",
    "name": "Erzincan"
  },
  {
    "id": 39,
    "city": "Erzincan",
    "iata": "ERC",
    "name": "Erzincan"
  },
  {
    "parentId": 41,
    "id": 42,
    "city": "Erzurum",
    "iata": "ERZ",
    "name": "Erzurum Hava Alani"
  },
  {
    "id": 41,
    "city": "Erzurum",
    "iata": "ERZ",
    "name": "Erzurum"
  },
  {
    "parentId": 43,
    "id": 44,
    "city": "Eski\u015fehir",
    "iata": "AOE",
    "name": "Anadolu University Havaliman\u0131"
  },
  {
    "parentId": 43,
    "id": 45,
    "city": "Eski\u015fehir",
    "iata": "ESK",
    "name": "Eskisehir"
  },
  {
    "id": 43,
    "city": "Eski\u015fehir",
    "iata": "ESK",
    "name": "Eski\u015fehir"
  },
  {
    "id": 46,
    "city": "Elazig",
    "iata": "EZS",
    "name": "Elazig"
  },
  {
    "parentId": 46,
    "id": 47,
    "city": "Elazig",
    "iata": "EZS",
    "name": "Elazig"
  },
  {
    "id": 48,
    "city": "Gokceada",
    "iata": "GKD",
    "name": "Gokceada"
  },
  {
    "parentId": 48,
    "id": 49,
    "city": "Gokceada",
    "iata": "GKD",
    "name": "Gokceada Havaliman\u0131"
  },
  {
    "id": 50,
    "city": "Alanya",
    "iata": "GZP",
    "name": "Alanya"
  },
  {
    "parentId": 50,
    "id": 51,
    "city": "Alanya",
    "iata": "GZP",
    "name": "Gazipasa Airport"
  },
  {
    "id": 52,
    "city": "Gaziantep",
    "iata": "GZT",
    "name": "Gaziantep"
  },
  {
    "parentId": 52,
    "id": 53,
    "city": "Gaziantep",
    "iata": "GZT",
    "name": "Gaziantep"
  },
  {
    "id": 54,
    "city": "Antakya",
    "iata": "HTY",
    "name": "Antakya"
  },
  {
    "parentId": 54,
    "id": 55,
    "city": "Antakya",
    "iata": "HTY",
    "name": "Hatay Airport"
  },
  {
    "id": 56,
    "city": "Igdir",
    "iata": "IGD",
    "name": "Igdir"
  },
  {
    "parentId": 56,
    "id": 57,
    "city": "Igdir",
    "iata": "IGD",
    "name": "Igdir"
  },
  {
    "id": 58,
    "city": "Isparta",
    "iata": "ISE",
    "name": "Isparta"
  },
  {
    "parentId": 58,
    "id": 59,
    "city": "Isparta",
    "iata": "ISE",
    "name": "Isparta Suleyman Demirel Havaliman\u0131"
  },
  {
    "id": 60,
    "city": "\u0130stanbul",
    "iata": "IST",
    "name": "\u0130stanbul"
  },
  {
    "parentId": 60,
    "id": 61,
    "city": "\u0130stanbul",
    "iata": "IST",
    "name": "Atat\u00fcrk Havaliman\u0131"
  },
  {
    "parentId": 60,
    "id": 62,
    "city": "\u0130stanbul",
    "iata": "SAW",
    "name": "Sabiha G\u00f6k\u00e7en Uluslararas\u0131 Havaliman\u0131xxx"
  },
  {
    "parentId": 63,
    "id": 64,
    "city": "\u0130zmir",
    "iata": "ADB",
    "name": "Adnan Menderes Airport"
  },
  {
    "id": 63,
    "city": "\u0130zmir",
    "iata": "IZM",
    "name": "\u0130zmir"
  },
  {
    "parentId": 65,
    "id": 66,
    "city": "Kahramanmaras",
    "iata": "KCM",
    "name": "Kahramanmaras"
  },
  {
    "id": 65,
    "city": "Kahramanmaras",
    "iata": "KCM",
    "name": "Kahramanmaras"
  },
  {
    "parentId": 67,
    "id": 68,
    "city": "Kocaeli",
    "iata": "KCO",
    "name": "Cengiz Topel"
  },
  {
    "id": 67,
    "city": "Kocaeli",
    "iata": "KCO",
    "name": "Kocaeli"
  },
  {
    "parentId": 69,
    "id": 70,
    "city": "Kars",
    "iata": "KSY",
    "name": "Kars"
  },
  {
    "id": 69,
    "city": "Kars",
    "iata": "KSY",
    "name": "Kars"
  },
  {
    "parentId": 71,
    "id": 72,
    "city": "Konya",
    "iata": "KYA",
    "name": "Konya"
  },
  {
    "id": 71,
    "city": "Konya",
    "iata": "KYA",
    "name": "Konya"
  },
  {
    "parentId": 73,
    "id": 74,
    "city": "Kutahya",
    "iata": "KZR",
    "name": "Zafer"
  },
  {
    "id": 73,
    "city": "Kutahya",
    "iata": "KZR",
    "name": "Kutahya"
  },
  {
    "parentId": 75,
    "id": 76,
    "city": "Malatya",
    "iata": "MLX",
    "name": "Malatya"
  },
  {
    "id": 75,
    "city": "Malatya",
    "iata": "MLX",
    "name": "Malatya"
  },
  {
    "parentId": 77,
    "id": 78,
    "city": "Mardin",
    "iata": "MQM",
    "name": "Mardin Airport"
  },
  {
    "id": 77,
    "city": "Mardin",
    "iata": "MQM",
    "name": "Mardin"
  },
  {
    "parentId": 79,
    "id": 80,
    "city": "Mus",
    "iata": "MSR",
    "name": "Mus"
  },
  {
    "id": 79,
    "city": "Mus",
    "iata": "MSR",
    "name": "Mus"
  },
  {
    "parentId": 81,
    "id": 82,
    "city": "Merzifon",
    "iata": "MZH",
    "name": "Merzifon"
  },
  {
    "id": 81,
    "city": "Merzifon",
    "iata": "MZH",
    "name": "Merzifon"
  },
  {
    "parentId": 83,
    "id": 84,
    "city": "Nev\u015fehir",
    "iata": "NAV",
    "name": "Nev\u015fehir Havaliman\u0131"
  },
  {
    "id": 83,
    "city": "Nev\u015fehir",
    "iata": "NAV",
    "name": "Nev\u015fehir"
  },
  {
    "parentId": 85,
    "id": 86,
    "city": "Sinop",
    "iata": "NOP",
    "name": "Sinop"
  },
  {
    "id": 85,
    "city": "Sinop",
    "iata": "NOP",
    "name": "Sinop"
  },
  {
    "parentId": 87,
    "id": 88,
    "city": "Zonguldak",
    "iata": "ONQ",
    "name": "Zonguldak"
  },
  {
    "id": 87,
    "city": "Zonguldak",
    "iata": "ONQ",
    "name": "Zonguldak"
  },
  {
    "parentId": 89,
    "id": 90,
    "city": "\u015eanl\u0131urfa",
    "iata": "GNY",
    "name": "Guney Anadolu Airport"
  },
  {
    "parentId": 89,
    "id": 91,
    "city": "\u015eanl\u0131urfa",
    "iata": "SFQ",
    "name": "\u015eanl\u0131 Urfa Havaliman\u0131"
  },
  {
    "id": 89,
    "city": "\u015eanl\u0131urfa",
    "iata": "SFQ",
    "name": "\u015eanl\u0131urfa"
  },
  {
    "id": 92,
    "city": "Siirt",
    "iata": "SXZ",
    "name": "Siirt"
  },
  {
    "parentId": 92,
    "id": 93,
    "city": "Siirt",
    "iata": "SXZ",
    "name": "Siirt"
  },
  {
    "id": 94,
    "city": "Samsun",
    "iata": "SZF",
    "name": "Samsun"
  },
  {
    "parentId": 94,
    "id": 95,
    "city": "Samsun",
    "iata": "SZF",
    "name": "Carsamba Airport"
  },
  {
    "id": 96,
    "city": "Tekirdag",
    "iata": "TEQ",
    "name": "Tekirdag"
  },
  {
    "parentId": 96,
    "id": 97,
    "city": "Tekirdag",
    "iata": "TEQ",
    "name": "Corlu"
  },
  {
    "id": 98,
    "city": "Tokat",
    "iata": "TJK",
    "name": "Tokat"
  },
  {
    "parentId": 98,
    "id": 99,
    "city": "Tokat",
    "iata": "TJK",
    "name": "Tokat"
  },
  {
    "id": 100,
    "city": "Trabzon",
    "iata": "TZX",
    "name": "Trabzon"
  },
  {
    "parentId": 100,
    "id": 101,
    "city": "Trabzon",
    "iata": "TZX",
    "name": "Trabzon"
  },
  {
    "id": 102,
    "city": "Usak",
    "iata": "USQ",
    "name": "Usak"
  },
  {
    "parentId": 102,
    "id": 103,
    "city": "Usak",
    "iata": "USQ",
    "name": "Usak"
  },
  {
    "id": 104,
    "city": "Van",
    "iata": "VAN",
    "name": "Van"
  },
  {
    "parentId": 104,
    "id": 105,
    "city": "Van",
    "iata": "VAN",
    "name": "Ferit Melen Airport"
  },
  {
    "id": 106,
    "city": "Sivas",
    "iata": "VAS",
    "name": "Sivas"
  },
  {
    "parentId": 106,
    "id": 107,
    "city": "Sivas",
    "iata": "VAS",
    "name": "Sivas"
  },
  {
    "id": 108,
    "city": "Artvin",
    "iata": "XHQ",
    "name": "Artvin"
  },
  {
    "parentId": 108,
    "id": 109,
    "city": "Artvin",
    "iata": "XHQ",
    "name": "Hopa Havaliman\u0131"
  },
  {
    "id": 110,
    "city": "Bursa",
    "iata": "YEI",
    "name": "Bursa"
  },
  {
    "parentId": 110,
    "id": 111,
    "city": "Bursa",
    "iata": "YEI",
    "name": "Bursa"
  }
]
